%YAML 1.1
%TAG !u! tag:unity3d.com,2011:
--- !u!74 &7400000
AnimationClip:
  m_ObjectHideFlags: 0
  m_CorrespondingSourceObject: {fileID: 0}
  m_PrefabInstance: {fileID: 0}
  m_PrefabAsset: {fileID: 0}
  m_Name: blast
  serializedVersion: 6
  m_Legacy: 0
  m_Compressed: 0
  m_UseHighQualityCurve: 1
  m_RotationCurves: []
  m_CompressedRotationCurves: []
  m_EulerCurves: []
  m_PositionCurves: []
  m_ScaleCurves: []
  m_FloatCurves: []
  m_PPtrCurves:
  - curve:
    - time: 0
      value: {fileID: -1327545683302235291, guid: ec6ac1044f5734a47a45092bb1ddbed5,
        type: 3}
    - time: 0.083333336
      value: {fileID: -7033316206868226852, guid: ec6ac1044f5734a47a45092bb1ddbed5,
        type: 3}
    - time: 0.13333334
      value: {fileID: 5608292569285459616, guid: ec6ac1044f5734a47a45092bb1ddbed5,
        type: 3}
    - time: 0.21666667
      value: {fileID: -8890212426675336015, guid: ec6ac1044f5734a47a45092bb1ddbed5,
        type: 3}
    - time: 0.26666668
      value: {fileID: -3844368587694302127, guid: ec6ac1044f5734a47a45092bb1ddbed5,
        type: 3}
    - time: 0.35
      value: {fileID: 360399785331881738, guid: ec6ac1044f5734a47a45092bb1ddbed5,
        type: 3}
    - time: 0.4
      value: {fileID: -7490109142150349480, guid: ec6ac1044f5734a47a45092bb1ddbed5,
        type: 3}
    - time: 0.48333332
      value: {fileID: 8783432726696253190, guid: ec6ac1044f5734a47a45092bb1ddbed5,
        type: 3}
    - time: 0.53333336
      value: {fileID: 8953771639896826245, guid: ec6ac1044f5734a47a45092bb1ddbed5,
        type: 3}
    - time: 0.6166667
      value: {fileID: 1830592305803385972, guid: ec6ac1044f5734a47a45092bb1ddbed5,
        type: 3}
    - time: 0.6666667
      value: {fileID: -9182548891091974916, guid: ec6ac1044f5734a47a45092bb1ddbed5,
        type: 3}
    attribute: m_Sprite
    path: 
    classID: 212
    script: {fileID: 0}
  m_SampleRate: 60
  m_WrapMode: 0
  m_Bounds:
    m_Center: {x: 0, y: 0, z: 0}
    m_Extent: {x: 0, y: 0, z: 0}
  m_ClipBindingConstant:
    genericBindings:
    - serializedVersion: 2
      path: 0
      attribute: 0
      script: {fileID: 0}
      typeID: 212
      customType: 23
      isPPtrCurve: 1
    pptrCurveMapping:
    - {fileID: -1327545683302235291, guid: ec6ac1044f5734a47a45092bb1ddbed5, type: 3}
    - {fileID: -7033316206868226852, guid: ec6ac1044f5734a47a45092bb1ddbed5, type: 3}
    - {fileID: 5608292569285459616, guid: ec6ac1044f5734a47a45092bb1ddbed5, type: 3}
    - {fileID: -8890212426675336015, guid: ec6ac1044f5734a47a45092bb1ddbed5, type: 3}
    - {fileID: -3844368587694302127, guid: ec6ac1044f5734a47a45092bb1ddbed5, type: 3}
    - {fileID: 360399785331881738, guid: ec6ac1044f5734a47a45092bb1ddbed5, type: 3}
    - {fileID: -7490109142150349480, guid: ec6ac1044f5734a47a45092bb1ddbed5, type: 3}
    - {fileID: 8783432726696253190, guid: ec6ac1044f5734a47a45092bb1ddbed5, type: 3}
    - {fileID: 8953771639896826245, guid: ec6ac1044f5734a47a45092bb1ddbed5, type: 3}
    - {fileID: 1830592305803385972, guid: ec6ac1044f5734a47a45092bb1ddbed5, type: 3}
    - {fileID: -9182548891091974916, guid: ec6ac1044f5734a47a45092bb1ddbed5, type: 3}
  m_AnimationClipSettings:
    serializedVersion: 2
    m_AdditiveReferencePoseClip: {fileID: 0}
    m_AdditiveReferencePoseTime: 0
    m_StartTime: 0
    m_StopTime: 0.68333334
    m_OrientationOffsetY: 0
    m_Level: 0
    m_CycleOffset: 0
    m_HasAdditiveReferencePose: 0
    m_LoopTime: 1
    m_LoopBlend: 0
    m_LoopBlendOrientation: 0
    m_LoopBlendPositionY: 0
    m_LoopBlendPositionXZ: 0
    m_KeepOriginalOrientation: 0
    m_KeepOriginalPositionY: 1
    m_KeepOriginalPositionXZ: 0
    m_HeightFromFeet: 0
    m_Mirror: 0
  m_EditorCurves: []
  m_EulerEditorCurves: []
  m_HasGenericRootTransform: 0
  m_HasMotionFloatCurves: 0
  m_Events: []
